<?xml version="1.0" encoding="utf-8"?>
<!-- Generator: Adobe Illustrator 19.0.0, SVG Export Plug-In . SVG Version: 6.00 Build 0)  -->
<svg version="1.1" id="Layer_1" xmlns="http://www.w3.org/2000/svg" xmlns:xlink="http://www.w3.org/1999/xlink" x="0px" y="0px"
	 viewBox="-199 201 100 100" style="enable-background:new -199 201 100 100;" xml:space="preserve">
<style type="text/css">
	.st0{fill:#8915FF;}
</style>
<path class="st0" d="M-108.5,251v-9h-9v-9h-9v-9h-9v9h-27v-9h-9v9h-9v9h-9v9h-9v9v18h9v-18h9v9v9h9v-9h45v9h9v-9v-9h9v18h9v-18v-9
	H-108.5z M-126.5,242v9h-9v-9H-126.5z M-171.5,242h9v9h-9V242z"/>
</svg>
